{
  "routes": [
    {
      "method": "GET",
      "path": "/commands",
      "handler": "command.find",
      "config": {
        "policies": []
      }
    },
    {
      "method": "GET",
      "path": "/commands/count",
      "handler": "command.count",
      "config": {
        "policies": []
      }
    },
    {
      "method": "GET",
      "path": "/commands/:id",
      "handler": "command.findOne",
      "config": {
        "policies": []
      }
    },
    {
      "method": "POST",
      "path": "/commands",
      "handler": "command.create",
      "config": {
        "policies": []
      }
    },
    {
      "method": "PUT",
      "path": "/commands/:id",
      "handler": "command.update",
      "config": {
        "policies": []
      }
    },
    {
      "method": "DELETE",
      "path": "/commands/:id",
      "handler": "command.delete",
      "config": {
        "policies": []
      }
    }
  ]
}
