{
  "kind": "singleType",
  "collectionName": "backgroundimages",
  "info": {
    "name": "backgroundimage"
  },
  "options": {
    "increments": true,
    "timestamps": true,
    "draftAndPublish": true
  },
  "attributes": {
    "image": {
      "model": "file",
      "via": "related",
      "allowedTypes": [
        "images"
      ],
      "plugin": "upload",
      "required": true
    }
  }
}
